<svg width="17" height="13" viewBox="0 0 17 13" fill="none" xmlns="http://www.w3.org/2000/svg">
<path fill-rule="evenodd" clip-rule="evenodd" d="M14.6824 6.48338V6.4864V6.48871C14.6817 8.08248 14.681 9.67972 14.681 11.778H14.6806C14.556 11.778 14.4637 11.778 14.3696 11.7771C14.1557 11.7778 13.9419 11.7782 13.7281 11.7785H13.728H13.728C13.1934 11.7793 12.6589 11.7801 12.1249 11.7879C11.7164 11.7942 11.4097 12.0245 11.3726 12.3269C11.3373 12.6184 11.5888 12.9055 11.9621 12.9829C12.0478 13.0009 12.1382 13.0001 12.2277 12.9994L12.2811 12.9991C13.302 13.0009 14.3238 13.0009 15.3447 13C15.9028 12.9991 15.9942 12.9208 15.9971 12.4043C16.0016 11.6247 16.0013 10.8445 16.001 10.0643V10.0642V10.0642L16.0009 9.47874C16.0005 8.00105 16.0007 6.84835 16.001 5.7554C16.0013 4.17003 16.0016 2.71039 15.9999 0.566929C15.9999 0.0944882 15.8952 0.00269965 15.3885 0.00179976C14.2715 0 13.1553 0 12.0392 0C8.2829 0 7.18325 0.000308737 5.62805 0.000745375C4.52813 0.00105419 3.20035 0.00142697 0.543705 0.00179976C0.129444 0.00179976 0.00373713 0.110686 0.00183248 0.494938C-0.00483379 1.52621 0.0294499 11.2452 0.0351638 12.2765C0.0370685 12.6895 0.355145 12.9982 0.757978 13C0.784216 13.0001 0.810091 12.9989 0.835543 12.9965C0.878235 12.9977 0.926206 12.9981 0.980011 12.9982C1.71734 13.0001 2.45466 12.9998 3.19199 12.9994L4.07697 12.9991L4.86928 12.9993C5.6613 12.9997 6.45333 13 7.24536 12.9973C7.70723 12.9964 7.75199 12.9523 7.75104 12.5168C7.74913 11.7168 7.91008 10.9761 8.44147 10.3102C8.60431 10.1062 8.77405 9.89953 8.94527 9.69106L8.94531 9.69101C9.32082 9.2338 9.7034 8.76798 10.0357 8.30258C10.1728 8.11091 10.1242 7.89133 9.91377 7.70596C9.70902 7.52508 9.50617 7.61417 9.30904 7.75455C8.64844 8.22537 7.98393 8.69176 7.31904 9.15839L7.11393 9.30236C5.67307 10.3138 4.13411 10.3885 2.63039 9.52463C2.50183 9.45084 2.3666 9.38605 2.22184 9.34735C1.92476 9.26774 1.67992 9.284 1.48218 9.35089C1.4688 6.71137 1.45127 3.19431 1.45127 2.82137V1.22656C4.95285 1.22656 6.51333 1.22723 8.07322 1.22791H8.07326H8.07328C9.63199 1.22858 11.1901 1.22925 14.6838 1.22925C14.6838 3.30688 14.6831 4.89367 14.6824 6.48338ZM2.30375 7.23511C2.31105 8.46104 3.31954 9.46134 4.54141 9.45677C5.80886 9.4522 6.81006 8.45556 6.80368 7.20587C6.7973 5.93609 5.79519 4.95224 4.51223 4.9568C3.28945 4.96137 2.29646 5.98633 2.30375 7.23511ZM10.2103 7.15213C10.3397 7.26771 10.4601 7.37523 10.5909 7.49181C10.837 7.25918 11.0863 7.02905 11.3356 6.79885C11.9322 6.24807 12.5292 5.69684 13.086 5.10981C13.3202 4.86414 13.0898 4.61217 13.0898 4.61217C12.966 4.46009 12.7117 4.4403 12.5307 4.59688C12.3498 4.75388 12.1772 4.91878 12.0048 5.08356C11.9104 5.17378 11.816 5.26395 11.7203 5.35278C11.3938 5.65517 11.067 5.95698 10.7381 6.26071C10.4895 6.49025 10.2397 6.72088 9.98804 6.95368C10.0669 7.02405 10.1399 7.08928 10.2103 7.15213Z" fill="#5624D0"/>
</svg>
